…
#)

#     n_users n_movies n_genres min_rating max_rating

#   1   69878    10663   797       0.5          5

```

However, we see only 8 million or so ratings.

```{r}

#> train_set %>% as_tibble()

# A tibble: 8,100,048 x 6

#   userId movieId rating timestamp title                  genres    

#    <int>   <dbl>  <dbl>     <int> <chr>                  <chr>               

# 1      1     122      5 838985046 Boomerang (1992)       Comedy|Romance         

# 2      1     185      5 838983525 Net, The (1995)        Action|Crime|Thriller  

# 3      1     316      5 838983392 Stargate (1994)        Action|Adventure|Sci-Fi

# 4      1     329      5 838983392 Star Trek: Generation~ Action|Adventure|Drama~

# 5      1     355      5 838984474 Flintstones, The (199~ Children|Comedy|Fantasy

# 6      1     356      5 838983653 Forrest Gump (1994)    Comedy|Drama|Romance|W~

# 7      1     362      5 838984885 Jungle Book, The (199~ Adventure|Children|Rom~

# 8      1     364      5 838983707 Lion King, The (1994)  Adventure|Animation|Ch~

# 9      1     370      5 838984596 Naked Gun 33 1/3: The~ Action|Comedy          

#10      1     377      5 838983834 Speed (1994)           Action|Romance|Thriller

# ... with 8,100,038 more rows
…
